…
``` r
library(dplyr)
```

\##Question 1##

How many flights have a missing dep_time? What other variables are
missing? What might these rows represent?

``` r
flights %>% filter(is.na(dep_time))
```

    ## # A tibble: 8,255 × 19
    ##     year month   day dep_time sched_de…¹ dep_d…² arr_t…³ sched…⁴ arr_d…⁵ carrier
    ##    <int> <int> <int>    <int>      <int>   <dbl>   <int>   <int>   <dbl> <chr>  
    ##  1  2013     1     1       NA       1630      NA      NA    1815      NA EV     
    ##  2  2013     1     1       NA       1935      NA      NA    2240      NA AA     
    ##  3  2013     1     1       NA       1500      NA      NA    1825      NA AA     
    ##  4  2013     1     1       NA        600      NA      NA     901      NA B6     
    ##  5  2013     1     2       NA       1540      NA      NA    1747      NA EV     
    ##  6  2013     1     2       NA       1620      NA      NA    1746      NA EV     
    ##  7  2013     1     2       NA       1355      NA      NA    1459      NA EV     
    ##  8  2013     1     2       NA       1420      NA      NA    1644      NA EV     
    ##  9  2013     1     2       NA       1321      NA      NA    1536      NA EV     
    ## 10  2013     1     2       NA       1545      NA      NA    1910      NA AA     
    ## # … with 8,245 more rows, 9 more variables: flight <int>, tailnum <chr>,
    ## #   origin <chr>, dest <chr>, air_time <dbl>, distance <dbl>, hour <dbl>,
    ## #   minute <dbl>, time_hour <dttm>, and abbreviated variable names
    ## #   ¹​sched_dep_time, ²​dep_delay, ³​arr_time, ⁴​sched_arr_time, ⁵​arr_delay
…
\##Question 2##

Currently dep_time and sched_dep_time are convenient to look at, but
hard to compute with because they’re not really continuous numbers.
Convert them to a more convenient representation of number of minutes
since midnight.

``` r
flights_depMin <- flights %>% mutate(dep_time_min = (dep_time%%100) + 60*(dep_time%/%100), sched_dep_time_min = (sched_dep_time%%100) + 60*(sched_dep_time%/%100))

flights_depMin %>% select(dep_time, sched_dep_time, dep_time_min, sched_dep_time_min)
```

    ## # A tibble: 336,776 × 4
    ##    dep_time sched_dep_time dep_time_min sched_dep_time_min
    ##       <int>          <int>        <dbl>              <dbl>
    ##  1      517            515          317                315
    ##  2      533            529          333                329
    ##  3      542            540          342                340
    ##  4      544            545          344                345
    ##  5      554            600          354                360
    ##  6      554            558          354                358
    ##  7      555            600          355                360
    ##  8      557            600          357                360
    ##  9      557            600          357                360
    ## 10      558            600          358                360
    ## # … with 336,766 more rows
…
